<?xml version="1.0" encoding="UTF-8"?>
<svg width="300px" height="300px" viewBox="0 0 300 300" version="1.1" xmlns="http://www.w3.org/2000/svg" xmlns:xlink="http://www.w3.org/1999/xlink">
    <!-- Generator: Sketch 51.2 (57519) - http://www.bohemiancoding.com/sketch -->
    <title>v copy</title>
    <desc>Created with Sketch.</desc>
    <defs></defs>
    <g id="v-copy" stroke="none" stroke-width="1" fill="none" fill-rule="evenodd">
        <g id="Icono-/-Banco-/-Ejectuivo-Copy" transform="translate(51.000000, 53.000000)">
            <polygon id="Clip-2" points="198.998647 0.00266878084 198.998647 196 0.000141046938 196 0.000141046938 0 198.998647 0 0 0.00266878084 0 196 199 196 199 0.00266878084"></polygon>
            <g id="Icono-Contactar-a-mi-ejecutivo" transform="translate(26.000000, 5.000000)" fill="#FFFFFF">
                <path d="M107.017449,99.7847904 C130.732327,101.445403 142.703468,117.910532 141.55021,136.561089 C141.55021,136.561089 141.152255,155.712963 141.152255,165.457312 C141.152255,175.20166 132.226689,174.982334 132.226689,174.982334 L11.0696503,174.982334 C11.0696503,174.982334 0,175.875305 0,164.963828 L0,142.200905 C0,116.798235 9.71335423,99.9257857 34.7276778,99.9257857 C34.7276778,99.9257857 61.4312804,137.892712 61.4312804,137.226901 C61.4312804,137.226901 71.6075621,98.7508241 71.5669544,98.5941626 L81.2315794,137.673386 L107.017449,99.7847904 Z M69.4553557,84.5110726 C44.8227441,84.5110726 24.8600145,65.5941906 24.8600145,42.2672859 C24.8600145,18.9247151 44.8227441,0 69.4553557,0 C94.0879672,0 114.050697,18.9247151 114.050697,42.2672859 C114.050697,65.5941906 94.0879672,84.5110726 69.4553557,84.5110726 Z" id="Combined-Shape"></path>
            </g>
        </g>
    </g>
</svg>