<?xml version="1.0" encoding="UTF-8"?>
<svg width="300px" height="300px" viewBox="0 0 300 300" version="1.1" xmlns="http://www.w3.org/2000/svg" xmlns:xlink="http://www.w3.org/1999/xlink">
    <!-- Generator: Sketch 51.2 (57519) - http://www.bohemiancoding.com/sketch -->
    <title>v copy 2</title>
    <desc>Created with Sketch.</desc>
    <defs>
        <polygon id="path-1" points="215 96 215 0 0 0 0 96 0 192 215 192"></polygon>
    </defs>
    <g id="v-copy-2" stroke="none" stroke-width="1" fill="none" fill-rule="evenodd">
        <g id="Icono-/-Comunicacion-/-Plataforma-digital-Copy" transform="translate(42.000000, 40.000000)">
            <mask id="mask-2" fill="white">
                <use xlink:href="#path-1"></use>
            </mask>
            <g id="Clip-2"></g>
            <path d="M61.841221,181.794403 C61.8524152,193.484968 70.5559199,203 81.2296069,203 L126.135213,203 C133.181974,203 139.394765,197.7834 141.247408,190.326936 L154.210313,149.149714 L157.999555,134.277725 C158.027541,129.739517 156.729012,127.318359 155.643172,126.084387 C154.294269,124.581398 152.391252,123.920551 149.810985,123.856221 C142.383621,123.66323 141.633608,137.043927 141.633608,137.043927 C141.633608,138.482585 140.564561,139.652227 139.24924,139.652227 C137.939516,139.652227 136.870469,138.482585 136.870469,137.038078 L136.870469,78.7607001 C136.870469,77.0939612 136.870469,72.6785652 134.542071,70.1287472 C133.22675,68.7017848 131.346122,68 128.799437,68 C123.146357,68 120.510119,71.4796829 120.510119,78.9419945 L120.515716,111.674407 C120.756391,114.001993 120.510119,117.505068 120.510119,117.505068 C120.498924,118.949575 120.823557,119.844351 119.497042,119.844351 C118.181721,119.844351 114.929801,116.265249 107.45766,116.949489 C107.45766,116.949489 97.2989072,118.557746 74.9440534,124.019971 C68.2667023,125.65162 55.5276819,134.166609 57.1396494,143.213784 L61.841221,181.794403 Z" id="Fill-1" fill="#FFFFFF"></path>
            <path d="M40.2500027,185.898944 L40.2500027,14.7811539 C40.2446071,3.54056449 48.273275,-5.70652811 58.0555162,-5.73136919 L131.214594,-5.73136919 L157.814953,-5.75 C167.591798,-5.75 175.733774,3.391518 175.749961,14.601056 L175.749961,185.743687 C175.771543,196.915964 166.906556,206.25 157.113523,206.25 L57.3864606,206.25 C47.5826369,206.25 40.2553983,197.108482 40.2500027,185.898944 M116.320175,186.720825 C116.320175,181.483728 112.600435,177.237082 107.985931,177.25003 C103.399565,177.25003 99.6798246,181.503148 99.6798246,186.746719 C99.6798246,192.009711 103.416447,196.275777 107.991559,196.249883 C112.600435,196.243409 116.320175,192.009711 116.320175,186.720825 M90.9634503,9.24685337 C90.9634503,12.003304 93.0136478,14.25 95.3974733,14.25 L120.726292,14.25 C123.104736,14.25 125.03655,12.003304 125.03655,9.24685337 C125.03655,6.47781624 123.104736,4.25 120.726292,4.25 L95.3974733,4.25629327 C93.0136478,4.25629327 91.114121,6.4841095 91.114121,9.24685337 L91.0925966,9.24685337 L90.9634503,9.24685337 M56.890378,30.6168499 C56.890378,30.6168499 56.9418664,153.628137 56.9418664,161.151852 C56.9418664,168.669757 62.39963,168.24564 62.39963,168.24564 L151.314838,168.24564 C151.314838,168.24564 158.317251,168.553561 158.317251,160.739355 C158.317251,152.930959 158.265763,30.4890338 158.265763,30.4890338 C158.265763,26.4918787 155.372119,23.25 151.814275,23.25 L63.3933549,23.3720062 C59.799469,23.377816 56.8800804,26.6313144 56.890378,30.6168499" id="Fill-1" fill="#FFFFFF" transform="translate(108.000000, 100.250000) rotate(-90.000000) translate(-108.000000, -100.250000) "></path>
        </g>
    </g>
</svg>