<?xml version="1.0" encoding="UTF-8"?>
<svg width="66px" height="60px" viewBox="0 0 66 60" version="1.1" xmlns="http://www.w3.org/2000/svg" xmlns:xlink="http://www.w3.org/1999/xlink">
    <!-- Generator: Sketch 55.2 (78181) - https://sketchapp.com -->
    <title>icon</title>
    <desc>Created with Sketch.</desc>
    <g id="15.0-Iconos-(NUEVOS)" stroke="none" stroke-width="1" fill="none" fill-rule="evenodd">
        <g id="Banking" transform="translate(-962.000000, -394.000000)">
            <g id="Group" transform="translate(70.000000, 70.000000)">
                <g id="Shape" transform="translate(850.000000, 286.000000)">
                    <g id="icon" transform="translate(28.000000, 20.000000)">
                        <rect id="Rectangle" x="0" y="0" width="96" height="96"></rect>
                        <g id="BAN/BAN006" transform="translate(8.000000, 8.000000)" fill="#444444">
                            <path d="M20.9440103,41.3264973 L19.641927,30.9098307 C19.189453,28.1315103 19.9934897,25.3238933 21.9173177,23.0647787 C24.2252603,20.3515627 27.9589843,18.6669923 31.6601563,18.6669923 C35.3678387,18.6669923 39.108073,20.3564453 41.419271,23.076172 C43.3398437,25.333659 44.1438803,28.1380207 43.6816407,30.9716797 L42.3958333,41.2809243 C41.5494793,46.8245443 37.2363283,50.5192057 31.6601563,50.5192057 C26.0904947,50.5192057 21.783854,46.8245443 20.9440103,41.3264973 Z M24.4563803,25.2246093 C23.5514323,26.2890627 22.5553387,28.055013 22.939453,30.436198 L24.2447913,40.8675127 C24.830729,44.6874997 27.7441403,47.185872 31.660156,47.185872 C35.5859373,47.185872 38.502604,44.6874997 39.095052,40.8219397 L40.3841147,30.496419 C40.7779947,28.061523 39.7851563,26.2972003 38.8802083,25.2343747 C37.184245,23.238932 34.4173177,22.0003253 31.6601563,22.0003253 C28.9095053,22.0003253 26.1490887,23.235677 24.4563803,25.2246093 Z M70,20 C70.921224,20 71.6666667,20.7454427 71.6666667,21.6666667 C71.6666667,22.5878907 70.921224,23.3333333 70,23.3333333 L61.6666667,23.3333333 L61.6666667,31.6666667 C61.6666667,32.5878907 60.921224,33.3333333 60,33.3333333 C59.078776,33.3333333 58.3333333,32.5878907 58.3333333,31.6666667 L58.3333333,23.3333333 L50,23.3333333 C49.078776,23.3333333 48.3333333,22.5878907 48.3333333,21.6666667 C48.3333333,20.7454427 49.078776,20 50,20 L58.3333333,20 L58.3333333,11.6666667 C58.3333333,10.7454427 59.078776,10 60,10 C60.921224,10 61.6666667,10.7454427 61.6666667,11.6666667 L61.6666667,20 L70,20 Z M56.6666667,65.0927733 C56.6666667,67.7978517 54.466146,70 51.7578123,70 L11.5755207,70 C8.86718733,70 6.66666667,67.7978517 6.66666667,65.0927733 L6.66666667,63.1477863 C6.66666667,58.2747393 12.6464843,54.3115233 20,54.3115233 C21.4095053,54.3115233 23.095703,54.5996093 24.5833333,54.8535157 L25.4915367,55.004883 C26.6471353,55.19043 27.7929687,55.4345703 28.9257813,55.7340497 L29.4791667,55.8821617 C30.250651,56.0953777 30.983073,56.295573 31.6666667,56.295573 C32.3209637,56.295573 33.5123697,55.9847007 34.560547,55.7096353 L35.748698,55.4085287 C37.8483073,54.9072263 40.8691407,54.3115233 43.3333333,54.3115233 C51.0579427,54.3115233 56.6666667,58.0273437 56.6666667,63.1477863 L56.6666667,65.0927733 Z M10,65.0927733 C10,65.9602863 10.7063803,66.6666667 11.5755207,66.6666667 L51.7578127,66.6666667 C52.626953,66.6666667 53.3333333,65.9602863 53.3333333,65.0927733 L53.3333333,63.1477863 C53.3333333,60.011393 49.033203,57.6448567 43.3333333,57.6448567 C41.6634113,57.6448567 39.2447917,58.0029297 36.5234377,58.6507163 L35.403646,58.935547 C34.0983073,59.2757163 32.747396,59.6289063 31.6666667,59.6289063 C30.533854,59.6289063 29.5052083,59.345703 28.597005,59.0966797 L28.079427,58.9567057 C27.050781,58.6865233 26.0091143,58.465169 24.9609373,58.2958983 L24.0234373,58.1380207 C22.6660157,57.906901 21.1295573,57.6448567 20,57.6448567 C14.6744793,57.6448567 10,60.2164713 10,63.1477863 L10,65.0927733 Z" id="Combined-Shape"></path>
                        </g>
                    </g>
                </g>
            </g>
        </g>
    </g>
</svg>