<?xml version="1.0" encoding="UTF-8"?>
<svg width="30px" height="30px" viewBox="0 0 30 30" version="1.1" xmlns="http://www.w3.org/2000/svg" xmlns:xlink="http://www.w3.org/1999/xlink">
    <!-- Generator: Sketch 51.2 (57519) - http://www.bohemiancoding.com/sketch -->
    <title>v copy 14</title>
    <desc>Created with Sketch.</desc>
    <defs>
        <polygon id="path-1" points="26 13 26 0 0 0 0 13 0 26 26 26"></polygon>
    </defs>
    <g id="v-copy-14" stroke="none" stroke-width="1" fill="none" fill-rule="evenodd">
        <g id="Icono-/-Banco-/-Cuenta-Copy" transform="translate(2.000000, 2.000000)">
            <mask id="mask-2" fill="white">
                <use xlink:href="#path-1"></use>
            </mask>
            <g id="Clip-2"></g>
            <path d="M24.9166667,12.1832158 C24.9166667,11.9578464 24.6801335,11.7743413 24.3870836,11.7743413 L23.5735211,11.7736436 L3.19887484,11.7680617 L1.61780061,11.7673639 C1.32475067,11.7673639 1.08751976,11.9501713 1.08751976,12.1755406 L1.08333333,23.3588847 C1.08333333,23.5856495 1.3198665,23.7691546 1.61431192,23.7691546 L24.3835949,23.776132 C24.6759471,23.776132 24.913178,23.5926269 24.913178,23.3665598 L24.9166667,12.1832158 Z M19.9229561,17.6709248 C18.6537707,17.6709248 17.6246072,16.6871143 17.6246072,15.473748 C17.6246072,14.2589862 18.6537707,13.2744779 19.9229561,13.2744779 C21.1921414,13.2744779 22.2213049,14.2589862 22.2213049,15.473748 C22.2213049,16.6871143 21.1921414,17.6709248 19.9229561,17.6709248 Z M23.5602641,22.2606452 C23.5602641,22.7672029 23.1004547,22.7560391 23.1004547,22.7560391 L16.8563977,22.7560391 C16.8563977,22.7560391 16.2856481,22.8020898 16.2856481,22.2348288 L16.2856481,21.0507675 C16.2856481,19.8178645 17.3308595,18.8187038 18.6202793,18.8187038 L21.2256328,18.8187038 C22.5150526,18.8187038 23.5602641,19.8178645 23.5602641,21.0507675 L23.5602641,22.2606452 Z M22.492725,9.59181696 C22.4536517,9.37342498 21.7942893,6.6682949 21.7942893,6.6682949 C21.7475408,6.47432374 21.5061235,6.3668721 21.2542401,6.4275753 L20.5523157,6.59991658 C20.5523157,6.59991658 2.35321643,10.923101 2.12714933,10.9838042 C1.90108223,11.0445074 1.55430646,11.2405718 2.64417316,11.1749844 C3.64961356,11.1149789 19.7631741,10.1067476 22.2520054,9.95115201 C22.4613268,9.93789499 22.532496,9.81020894 22.492725,9.59181696 L22.492725,9.59181696 Z M18.0460409,5.42004168 C17.9671966,5.29096016 16.6707994,3.37357624 16.6707994,3.37357624 C16.565441,3.21798067 16.2521566,3.20821234 15.9695728,3.35055089 L15.1811289,3.74616831 L1.77758261,10.4953876 C1.77758261,10.4953876 1.5605861,10.6474945 1.87387045,10.5588818 C2.16273396,10.4779442 15.7344351,6.42966851 17.9274255,5.77519031 C18.1206989,5.71797579 18.1255831,5.54912321 18.0460409,5.42004168 L18.0460409,5.42004168 Z" id="Fill-1" fill="#DDDDDD"></path>
        </g>
    </g>
</svg>